<?xml version="1.0" encoding="UTF-8" standalone="no"?>
<!-- Created with Inkscape (http://www.inkscape.org/) -->

<svg
   xmlns:dc="http://purl.org/dc/elements/1.1/"
   xmlns:cc="http://creativecommons.org/ns#"
   xmlns:rdf="http://www.w3.org/1999/02/22-rdf-syntax-ns#"
   xmlns:svg="http://www.w3.org/2000/svg"
   xmlns="http://www.w3.org/2000/svg"
   xmlns:xlink="http://www.w3.org/1999/xlink"
   xmlns:sodipodi="http://sodipodi.sourceforge.net/DTD/sodipodi-0.dtd"
   xmlns:inkscape="http://www.inkscape.org/namespaces/inkscape"
   width="100"
   height="100"
   viewBox="0 0 26.458333 26.458334"
   version="1.1"
   id="svg845"
   inkscape:version="0.92.4 5da689c313, 2019-01-14"
   sodipodi:docname="planet.svg">
  <defs
     id="defs839">
    <linearGradient
       inkscape:collect="always"
       xlink:href="#linearGradient939"
       id="linearGradient947"
       x1="-346.72046"
       y1="166.93311"
       x2="-317.69666"
       y2="166.93311"
       gradientUnits="userSpaceOnUse" />
    <linearGradient
       inkscape:collect="always"
       id="linearGradient939">
      <stop
         style="stop-color:#decd87;stop-opacity:1;"
         offset="0"
         id="stop935" />
      <stop
         style="stop-color:#decd87;stop-opacity:0;"
         offset="1"
         id="stop937" />
    </linearGradient>
    <linearGradient
       inkscape:collect="always"
       xlink:href="#linearGradient885"
       id="linearGradient889"
       x1="1033.2632"
       y1="305.46667"
       x2="1235.8033"
       y2="305.46667"
       gradientUnits="userSpaceOnUse"
       gradientTransform="matrix(0.08417309,0,0,0.08417309,-82.021116,258.43435)" />
    <linearGradient
       inkscape:collect="always"
       id="linearGradient885">
      <stop
         style="stop-color:#afc6e9;stop-opacity:1;"
         offset="0"
         id="stop881" />
      <stop
         style="stop-color:#afc6e9;stop-opacity:0;"
         offset="1"
         id="stop883" />
    </linearGradient>
    <linearGradient
       inkscape:collect="always"
       xlink:href="#linearGradient939"
       id="linearGradient949"
       x1="465.04092"
       y1="129.23508"
       x2="516.6123"
       y2="129.23508"
       gradientUnits="userSpaceOnUse"
       gradientTransform="matrix(0.08417309,0,0,0.08417309,-19.128448,264.13567)" />
    <linearGradient
       inkscape:collect="always"
       xlink:href="#linearGradient939"
       id="linearGradient2896"
       gradientUnits="userSpaceOnUse"
       x1="-346.72046"
       y1="166.93311"
       x2="-317.69666"
       y2="166.93311" />
    <linearGradient
       inkscape:collect="always"
       xlink:href="#linearGradient939"
       id="linearGradient2898"
       gradientUnits="userSpaceOnUse"
       x1="-346.72046"
       y1="166.93311"
       x2="-317.69666"
       y2="166.93311" />
    <linearGradient
       inkscape:collect="always"
       xlink:href="#linearGradient939"
       id="linearGradient2900"
       gradientUnits="userSpaceOnUse"
       x1="-346.72046"
       y1="166.93311"
       x2="-317.69666"
       y2="166.93311" />
  </defs>
  <sodipodi:namedview
     id="base"
     pagecolor="#ffffff"
     bordercolor="#666666"
     borderopacity="1.0"
     inkscape:pageopacity="0.0"
     inkscape:pageshadow="2"
     inkscape:zoom="2.8"
     inkscape:cx="2.4583313"
     inkscape:cy="23.806713"
     inkscape:document-units="mm"
     inkscape:current-layer="g2912"
     showgrid="false"
     units="px"
     inkscape:object-paths="true"
     inkscape:snap-intersection-paths="true"
     inkscape:snap-smooth-nodes="true"
     inkscape:snap-midpoints="true"
     inkscape:snap-bbox="true"
     inkscape:window-width="1920"
     inkscape:window-height="1020"
     inkscape:window-x="0"
     inkscape:window-y="28"
     inkscape:window-maximized="1" />
  <metadata
     id="metadata842">
    <rdf:RDF>
      <cc:Work
         rdf:about="">
        <dc:format>image/svg+xml</dc:format>
        <dc:type
           rdf:resource="http://purl.org/dc/dcmitype/StillImage" />
        <dc:title></dc:title>
      </cc:Work>
    </rdf:RDF>
  </metadata>
  <g
     inkscape:label="Layer 1"
     inkscape:groupmode="layer"
     id="layer1"
     transform="translate(0,-270.54165)">
    <g
       id="g2912"
       transform="translate(-0.246845,-0.37557997)">
      <rect
         style="opacity:1;fill:#ececec;fill-opacity:1;stroke:none;stroke-width:0.0598937;stroke-linecap:round;stroke-linejoin:round;stroke-miterlimit:4;stroke-dasharray:none;stroke-dashoffset:0;stroke-opacity:1;paint-order:normal"
         id="rect843"
         width="26.032722"
         height="26.043892"
         x="0.45965043"
         y="271.12445"
         ry="4.2897463" />
      <rect
         ry="4.2897463"
         y="271.12445"
         x="0.45965043"
         height="26.043892"
         width="26.032722"
         id="rect1046-3-2"
         style="opacity:0.48600003;fill:#ececec;fill-opacity:1;stroke:none;stroke-width:0.0598937;stroke-linecap:round;stroke-linejoin:round;stroke-miterlimit:4;stroke-dasharray:none;stroke-dashoffset:0;stroke-opacity:1;paint-order:normal" />
      <path
         inkscape:transform-center-y="-0.11168695"
         inkscape:transform-center-x="0.11166233"
         d="m 23.931511,276.75933 -1.453115,-0.49276 -1.229722,0.91768 0.01961,-1.53427 -1.252776,-0.88595 1.465236,-0.45546 0.455464,-1.46524 0.885955,1.25278 1.534268,-0.0196 -0.917686,1.22972 z"
         inkscape:randomized="0"
         inkscape:rounded="0"
         inkscape:flatsided="false"
         sodipodi:arg2="1.4137167"
         sodipodi:arg1="0.78539816"
         sodipodi:r2="1.1553026"
         sodipodi:r1="2.3106055"
         sodipodi:cy="275.12549"
         sodipodi:cx="22.297667"
         sodipodi:sides="5"
         id="path838-6"
         style="opacity:1;fill:url(#linearGradient949);fill-opacity:1;stroke:none;stroke-width:0.25580025;stroke-linejoin:round;stroke-miterlimit:4;stroke-dasharray:none;stroke-dashoffset:0;stroke-opacity:1;paint-order:normal"
         sodipodi:type="star" />
      <path
         transform="matrix(0.0190624,0.07032156,-0.07032156,0.0190624,23.201333,312.73894)"
         inkscape:transform-center-y="-0.071313334"
         inkscape:transform-center-x="0.037351757"
         d="m -320.5377,178.60395 -9.71566,-3.29468 -8.22203,6.13573 0.13112,-10.25825 -8.37618,-5.92358 9.7967,-3.04527 3.04528,-9.7967 5.92357,8.37617 10.25825,-0.13111 -6.13572,8.22203 z"
         inkscape:randomized="0"
         inkscape:rounded="0"
         inkscape:flatsided="false"
         sodipodi:arg2="1.4137167"
         sodipodi:arg1="0.78539816"
         sodipodi:r2="7.7244582"
         sodipodi:r1="15.448916"
         sodipodi:cy="167.67992"
         sodipodi:cx="-331.46173"
         sodipodi:sides="5"
         id="path838-3-7-7"
         style="opacity:1;fill:url(#linearGradient2896);fill-opacity:1;stroke:none;stroke-width:1.71030343;stroke-linejoin:round;stroke-miterlimit:4;stroke-dasharray:none;stroke-dashoffset:0;stroke-opacity:1;paint-order:normal"
         sodipodi:type="star" />
      <circle
         r="8.5242157"
         cy="284.14642"
         cx="13.475997"
         id="path819-5"
         style="opacity:1;fill:url(#linearGradient889);fill-opacity:1;stroke:none;stroke-width:0.23537008;stroke-linejoin:round;stroke-miterlimit:4;stroke-dasharray:none;stroke-dashoffset:0;stroke-opacity:1;paint-order:normal" />
      <g
         inkscape:transform-center-y="2.9619382"
         inkscape:transform-center-x="-10.976654"
         transform="matrix(0.13064921,0,0,0.13064921,9.676175,261.83064)"
         style="fill:#afc6e9;fill-opacity:1"
         id="g871-3">
        <path
           inkscape:connector-curvature="0"
           style="opacity:0.503;fill:#afc6e9;fill-opacity:1;stroke:none;stroke-width:8.34049702;stroke-linejoin:round;stroke-miterlimit:4;stroke-dasharray:none;stroke-dashoffset:0;stroke-opacity:1;paint-order:normal"
           d="M -101.29883,495.57227 A 376.96965,117.95244 15 0 0 -254.19922,548 a 376.96965,117.95244 15 0 0 119.88281,129.31055 246.59552,246.59552 0 0 1 -2.35351,-31.74219 246.59552,246.59552 0 0 1 1.03125,-20.58203 280.18015,87.667362 15 0 1 -25.06641,-51.93555 280.18015,87.667362 15 0 1 47.86328,-32.54297 246.59552,246.59552 0 0 1 27.087894,-44.49609 376.96965,117.95244 15 0 0 -15.544924,-0.43945 z m 455.4668,118.25195 a 246.59552,246.59552 0 0 1 2.35351,31.74414 246.59552,246.59552 0 0 1 -1.02929,20.57617 280.18015,87.667362 15 0 1 25.06836,51.9375 280.18015,87.667362 15 0 1 -47.86914,32.54688 246.59552,246.59552 0 0 1 -27.08399,44.49414 376.96965,117.95244 15 0 0 168.44336,-51.99024 376.96965,117.95244 15 0 0 -119.88281,-129.30859 z"
           transform="scale(0.26458333)"
           id="path825-5" />
        <path
           inkscape:connector-curvature="0"
           style="opacity:0.45899999;fill:#afc6e9;fill-opacity:1;stroke:none;stroke-width:1.80154276;stroke-linejoin:round;stroke-miterlimit:4;stroke-dasharray:none;stroke-dashoffset:0;stroke-opacity:1;paint-order:normal"
           d="m -35.888251,165.36115 a 65.245064,65.245064 0 0 0 -0.272333,5.44514 65.245064,65.245064 0 0 0 0.622699,8.39897 99.739883,31.208249 15 0 0 56.545387,21.74596 99.739883,31.208249 15 0 0 59.851125,9.42527 65.245064,65.245064 0 0 0 7.166488,-11.77293 74.130994,23.195323 15 0 1 -64.943838,-5.39192 74.130994,23.195323 15 0 1 -58.969528,-27.85049 z"
           id="path819-3-6" />
      </g>
      <path
         transform="matrix(0.06415684,0.06660579,-0.06660579,0.06415684,36.729964,286.41834)"
         inkscape:transform-center-y="0.1285402"
         inkscape:transform-center-x="0.0082582288"
         d="m -320.5377,178.60395 -9.71566,-3.29468 -8.22203,6.13573 0.13112,-10.25825 -8.37618,-5.92358 9.7967,-3.04527 3.04528,-9.7967 5.92357,8.37617 10.25825,-0.13111 -6.13572,8.22203 z"
         inkscape:randomized="0"
         inkscape:rounded="0"
         inkscape:flatsided="false"
         sodipodi:arg2="1.4137167"
         sodipodi:arg1="0.78539816"
         sodipodi:r2="7.7244582"
         sodipodi:r1="15.448916"
         sodipodi:cy="167.67992"
         sodipodi:cx="-331.46173"
         sodipodi:sides="5"
         id="path838-3-2"
         style="opacity:1;fill:url(#linearGradient2898);fill-opacity:1;stroke:none;stroke-width:1.71030343;stroke-linejoin:round;stroke-miterlimit:4;stroke-dasharray:none;stroke-dashoffset:0;stroke-opacity:1;paint-order:normal"
         sodipodi:type="star" />
      <path
         transform="matrix(0.06496064,0.08094207,-0.08094207,0.06496064,53.429555,310.49124)"
         inkscape:transform-center-y="0.10087843"
         inkscape:transform-center-x="0.053951984"
         d="m -320.5377,178.60395 -9.71566,-3.29468 -8.22203,6.13573 0.13112,-10.25825 -8.37618,-5.92358 9.7967,-3.04527 3.04528,-9.7967 5.92357,8.37617 10.25825,-0.13111 -6.13572,8.22203 z"
         inkscape:randomized="0"
         inkscape:rounded="0"
         inkscape:flatsided="false"
         sodipodi:arg2="1.4137167"
         sodipodi:arg1="0.78539816"
         sodipodi:r2="7.7244582"
         sodipodi:r1="15.448916"
         sodipodi:cy="167.67992"
         sodipodi:cx="-331.46173"
         sodipodi:sides="5"
         id="path838-3-7-5-9-7"
         style="opacity:1;fill:url(#linearGradient2900);fill-opacity:1;stroke:none;stroke-width:1.71030343;stroke-linejoin:round;stroke-miterlimit:4;stroke-dasharray:none;stroke-dashoffset:0;stroke-opacity:1;paint-order:normal"
         sodipodi:type="star" />
      <path
         transform="matrix(-0.00148835,0.05931556,-0.05931556,-0.00148835,24.021604,292.99352)"
         inkscape:transform-center-y="-0.037283031"
         inkscape:transform-center-x="-0.051332105"
         d="m -320.5377,178.60395 -9.71566,-3.29468 -8.22203,6.13573 0.13112,-10.25825 -8.37618,-5.92358 9.7967,-3.04527 3.04528,-9.7967 5.92357,8.37617 10.25825,-0.13111 -6.13572,8.22203 z"
         inkscape:randomized="0"
         inkscape:rounded="0"
         inkscape:flatsided="false"
         sodipodi:arg2="1.4137167"
         sodipodi:arg1="0.78539816"
         sodipodi:r2="7.7244582"
         sodipodi:r1="15.448916"
         sodipodi:cy="167.67992"
         sodipodi:cx="-331.46173"
         sodipodi:sides="5"
         id="path838-3-6-1"
         style="opacity:1;fill:url(#linearGradient947);fill-opacity:1;stroke:none;stroke-width:1.71030343;stroke-linejoin:round;stroke-miterlimit:4;stroke-dasharray:none;stroke-dashoffset:0;stroke-opacity:1;paint-order:normal"
         sodipodi:type="star" />
    </g>
  </g>
</svg>
